version="1.9.1"
tags={
	"Alternative History"
	"Events"
	"National Focuses"
	"Map"
	"Gameplay"
}
name="Russian Turmoil"
supported_version="1.9.2"
path="C:/Users/admin/Documents/Paradox Interactive/Hearts of Iron IV/mod/russian-turmoil"