state={
	id=1004
	name="STATE_1004"

	history={
		owner = ARM
		victory_points = {
			6997 1 
		}
		buildings = {
			infrastructure = 3

		}
		add_core_of = SOV
		add_core_of = AZR

	}

	provinces={
		6997 
	}
	manpower=120040
	buildings_max_level_factor=1.000
	state_category=wasteland
}
