
state={
	id=196
	name="STATE_196"
	manpower = 728363
	
	state_category = rural
	
	resources={
		chromium=15 # was: 22
	}

	history={
		victory_points = {
			721 1
		}
		owner = CRE
		buildings = {
			infrastructure = 5
			air_base = 3
		}
		add_core_of = SUK
		add_core_of = UKR
		add_core_of = CRE
	}

	provinces={
		568 721 737 767 3573 6771 9712
	}
}
