
state={
	id=199
	name="STATE_199"

	history={
		victory_points = {
			3457 3 
		}
		owner = POL
		buildings = {
			infrastructure = 5
			industrial_complex = 1
			air_base = 3

		}
		add_core_of = SUK
		add_core_of = UKR

	}

	provinces={
		462 3430 3457 3511 6429 6509 
	}
	manpower=1424022
	buildings_max_level_factor=1.000
	state_category=town
}
