
state={
	id=225
	name="STATE_225"

	history={
		victory_points = {
			3520 3 
		}
		victory_points = {
			9566 1 
		}
		owner = SUK
		buildings = {
			infrastructure = 5

		}
		add_core_of = SUK
		add_core_of = UKR

	}

	provinces={
		463 501 522 3225 3455 3520 6508 6565 9477 9566 11425 11462 11553 
	}
	manpower=1338280
	buildings_max_level_factor=1.000
	state_category=town
}
