
state={
	id=233
	name="STATE_233"
	resources={
		chromium=35.000
	}

	history={
		owner = CHE
		buildings = {
			infrastructure = 3

		}
		add_core_of = CHE
		add_core_of = SOV
		victory_points = {
			9628 3 
		}
		victory_points = {
			3698 1 
		}

	}

	provinces={
		685 3698 6692 6721 9628 9647 9649 9674 11614 
	}
	manpower=1463970
	buildings_max_level_factor=1.000
	state_category=rural
}
