state={
	id=926
	name="STATE_926"

	history={
		owner = SUK
		buildings = {
			infrastructure = 5

		}
		add_core_of = SUK
		add_core_of = UKR

	}

	provinces={
		582 9543 11557 
	}
	manpower=400100
	buildings_max_level_factor=1.000
	state_category=pastoral
}
