state={
	id=93
	name="STATE_93"

	history={
		victory_points = {
			6557 1
		}
		#victory_points = {
		#	572 5
		#}
		#victory_points = {
		#	513 1
		#}
		owner = POL
		buildings = {
			infrastructure = 5

		}
		add_core_of = POL
		add_core_of = UKR
		add_core_of = SUK

	}

	provinces={
		422 474 513 572 3412 6435 6520 6557 11441 11543 
	}
	manpower=1985600
	buildings_max_level_factor=1.000
	state_category=town
}
