state={
	id=996
	name="STATE_996"

	history={
		owner = POL
		victory_points = {
			3434 1 
		}
		buildings = {
			infrastructure = 5

		}
		add_core_of = POL
		add_core_of = GAL
		add_core_of = SUK
	}

	provinces={
		3434 
	}
	manpower=50300
	buildings_max_level_factor=1.000
	state_category=pastoral
}
